{
  "storage": {
    "root": "root directory to store served documents",
    "root": "www",
    "rules": []
  },
  "log": { "global": "debug" },
  "ldp": {
    "container_listing": [ "index.html", "index.xhtml" ]
  },
  "https": {
    "port": "port number to listen to",
    "port": 9999,
    "key_file": ".key file of server key",
    "key_file": "server-certificates/server.key",
    "cert_file": ".pem file of server certificate",
    "cert_file": "server-certificates/server.pem"
  }
}
