{
  "storage": {
    "root": "root directory to store served documents",
    "root": "www",
    "rules": [
      { path: "/v/", root: "repo/", fs_type: "git" },
      { path: "/tmp/", root: "/tmp/t/", fs_type: "git", options: { bare: true} }
    ]
  },
  "log": { "global": "debug" },
  "ldp": {
    "container_listing": [ "index.html", "index.xhtml" ]
  },
  "http": {
    port: 9999,
    hostname: "localhost",
    client_cert_header: "X-SSL-Cert"
  },
  "https": {
    "port": "port number to listen to",
    "port": 9999,
    "key_file": ".key file of server key",
    "key_file": "../../server-certificates/server.key",
    "cert_file": ".pem file of server certificate",
    "cert_file": "../../server-certificates/server.pem"
  }
}
